// Jest Snapshot v1, https://goo.gl/fbAQLP

exports[`Target component renders target 1`] = `
<span
  class="gl-text-default"
>
  294444-apollo-management-table
</span>
`;

exports[`Target component without target renders Not Set with icon 1`] = `
<span
  class="gl-text-default"
  title="To use this corpus, edit the corresponding YAML file"
>
  <gl-icon-stub
    class="gl-mr-1"
    name="information-o"
    size="16"
    variant="current"
  />
  Not Set
</span>
`;
